ProductName,SKU,RegularPrice,Saleprice,MaxPurchase,LowNotification,Stock,FreeShipping,ShippingCharge,ReturnType,ReturnDays,SearchTag,SortDesc,Description,Image1,Image2,Image3,Image4,Image5
Tringamoot - Taringamutu Totara Sawmills,BOOK909011,150,120,12,10,200,No,6,Yes,5,,,,430770989.jpg,,,,
The Intriguing Story of Coromandel Granite,BOOK909012,120,100,10,5,150,No,5,Yes,6,,,,390597331.jpg,,,,
The Dawn of Genius,BOOK909013,170,150,12,10,200,No,8,Yes,7,,,,336600377.jpg,,,,
ON THE TRAIL OF THE OLD WEST THEN AND NOW,BOOK909014,200,170,10,10,250,No,10,Yes,5,,,,404931991.jpg,,,,
"The Father of Us All: War and History, Ancient and",BOOK909015,150,120,8,8,200,No,10,Yes,10,,,,429674033.jpg,,,,
For Us the Living: The Civil War in Paintings,BOOK909016,170,150,10,10,180,No,15,No,0,,,,431832956.jpg,,,,
,,,,,,,,,,,,,,,,,,
,,,,,,,,,,,,,,,,,,
,,,,,,2,,,,,,,,,,,,
