ProductName,SKU,RegularPrice,Saleprice,MaxPurchase,LowNotification,Stock,FreeShipping,ShippingCharge,ReturnType,ReturnDays,SearchTag,SortDesc,Description,Image1,Image2,Image3,Image4,Image5
Game of Thrones – part 2 ,got2,999,799,12,1,25,No,20,No,0,"Game of throne, book , George R R Martin","Acclaimed as one of the major achievements in the fantasy mystery genre, Game Of Thrones: A Song Of Ice And Fire (Book- 1) TV Tie-in Edition is the first book of George R. R. Martin’s immensely popular series, A Song of Ice and Fire.","Summary Of The Book

Full of adventure, mystery, intrigue, and romance, Game Of Thrones: A Song Of Ice And Fire (Book- 1) TV Tie-in Edition is a fitting opening to one of the most popular fantasy fiction series. The book contains supernatural elements which revolve around the seasons which last decades. The summer is ending and winter is fast approaching. As the cold is on its way back, it is bringing along with it deadly forces. Beyond the protective walls of the kingdom, in the frozen wastes, supernatural forces are making their way to the world of men.

In this battle for the throne, replete with death, plunder, tragedy, betrayal, terror, and treachery, two families take centre stage, the Starks and the Lannisters. Lord Eddard Stark, the newly appointed ‘Hand’ of King Robert, has to defend the Iron throne. What happens to King Robert? What does Ned Stark discover that makes him the enemy of the Queen? Will Sansa Stark marry Joffrey? Who is Daenerys Targaryen and how will her actions affect Westeros? This fantasy adventure tale, which takes place in a land of magic, dragons, and supernatural creatures, keeps readers spellbound till the very end.",game3.jpeg,game4.jpeg,,,
"I Know You ReallyIKNR Love Me: A Psychiatrist's Account of Stalking and Obsessive Love Mass Market Paperback – July 6, 1998 ",IKNOW,399,300,1,5,20,NO,50,Yes,10,"I know , Really Loves,","Locked in a ward of an Arizona psychiatric hospital, the patient called Fran looked harmless, even ordinary.  Meeting her, psychiatrist Doreen Orion had no warning that Fran suffered from erotomania, the bizarre mental disorder that causes stalkers to believe their victims are in love with them--and no inkling that she would be the next target of Fran's twisted, dangerous mind.","Locked in a ward of an Arizona psychiatric hospital, the patient called Fran looked harmless, even ordinary.  Meeting her, psychiatrist Doreen Orion had no warning that Fran suffered from erotomania, the bizarre mental disorder that causes stalkers to believe their victims are in love with them--and no inkling that she would be the next target of Fran's twisted, dangerous mind.

Now Dr. Orion reveals how she has been spied upon, accosted, and hunted for eight years, living in fear of her life and the lives of those closest to her.  Changing her address and job, getting restraining orders and having Fran arrested, have all failed to end Fran's obsessive behavior, which continues to this day.  

Recounting the ordeals of Madonna, David Letterman, and scores of others who have been terrorized by stalkers, Dr.  Orion alerts potential victims to this increasingly deadly disorder--and tells what society must do to       protect us all from those who would kill for love.",i1.jpg,i2.jpg,,,
