ProductName,SKU,RegularPrice,Saleprice,MaxPurchase,LowNotification,Stock,ShippingCharge,ReturnDays,SearchTag,SortDesc,Description,Image1,Image2,Image3,Image4,Image5,Brand,Size,Color
OBOZ Men's Sawtooth Shoes – Shadow21,K140121,60.99,39.99,5,1,10,10,3,Free OBOZ Men's Sawtooth Shoes - Shadow,"UpperﾠNubuck leather and high abrasion textile fabric upper. BFitﾙ insoles are designed with multiple densities of foam, providing support throughout the plantar fascia and a defined and formed heel cup.","Size Information : 
US  
EU  

This Nike BB Kobe GS Polo Shirt is ideal for casual wear It is made out of 100% cotton and is machine washable. Features a collar with a 2 button placket 

short sleeves with ribbed cuffs and a green black and red embroidered badge stitched onto the left side of the chest. Also features a branded woven tab with the 

words KNOW ORIGINATE BATTLE AND ELEVATE stitched onto the bottom left side and 

The word BATTLE stitched across the back.This cute dress is Green with black spots and has a built in underskirt of black and white spots. The width underarm to underarm is 47 cm and length is 92 cm. Armholes have black and white trim edging This is new never worn but have not kept tags.",,,,,kathmandu,Adidas,9,Black
