ProductName,SKU,RegularPrice,Saleprice,MaxPurchase,Stock,ShippingCharge,ReturnDays,SearchTag,SortDesc,Description,Image1,Image2,Image3,Image4,Image5,Brand
rachwean221,rachawwwn122,33,33,3,3,3,4,we,2323423433c324,34234,Icons_Community_v3.png,,,,,new
rachan2www22,rachwwwan222,33,33,3,3,3,4,,3424v 234234,34234,Icons_drama.PNG,,,,,new
rachwwwan223,rachwwwan3222,33,33,3,3,3,4,,243324234,234324,Icons_Community_v3.png,,,,,r
rachwwwan224,rachwwwan434,33,33,3,3,3,4,,2342234  34234,23234,Icons_Community_v3.png,,,,,r
rachwwwan2225,racwwwwhan53434,33,33,3,0,0,0,,rter,erte,,,,,,
