ProductName,SKU,RegularPrice,Saleprice,MaxPurchase,Stock,ShippingCharge,ReturnDays,SearchTag,SortDesc,Description,Image1,Image2,Image3,Image4,Image5,Brand
rachan1,rachan1,33,33,3,3,3,4,we,2323423433c324,34234,Icons_Community_v3.png,,,,,new
rachan2,rachan2,33,33,3,3,3,4,,3424v 234234,34234,Icons_drama.PNG,,,,,new
rachan3,rachan3,33,33,3,3,3,4,,243324234,234324,Icons_Community_v3.png,,,,,r
rachan4,rachan4,33,33,3,3,3,4,,2342234  34234,23234,Icons_Community_v3.png,,,,,r
rachan5,rachan5,33,33,3,0,0,0,,,,,,,,,
