ProductName,SKU,RegularPrice,Saleprice,MaxPurchase,LowNotification,Stock,FreeShipping,ShippingCharge,ReturnType,ReturnDays,SearchTag,SortDesc,Description,Image1,Image2,Image3,Image4,Image5,Brand
Vinod Grinder1,vv1,121,12,12,2,2,2,2,,,,,,,,,,,
Vinod Grinder 200,vv200,121,12,12,2,2,2,2,,,,,,,,,,,
