ProductName,SKU,RegularPrice,Saleprice,MaxPurchase,LowNotification,Stock,FreeShipping,ShippingCharge,ReturnType,ReturnDays,SearchTag,SortDesc,Description,Image1,Image2,Image3,Image4,Image5,Brand,Color,Size
Southcape Merino V Neck black,EM101,10,5,5,5,10,No,5,Yes,7,,,"The Southcape Merino V Neck features ribbing at the neck, cuffs and hem. This long sleeve design is made from soft, breathable 100% merino. Layer over a shirt and jeans for comfortable casual wear.",Ezi1.jpg,,,,,Southcape,Black,S
Southcape Merino V Neck blue,EM102,8,2,2,2,50,No,10,Yes,7,,,"The Southcape Merino V Neck features ribbing at the neck, cuffs and hem. This long sleeve design is made from soft, breathable 100% merino. Layer over a shirt and jeans for comfortable casual wear.",Ezi2.jpg,,,,,Southcape,Blue,S
Next Geo Front Crew,EM103,4,2,2,2,50,No,5,Yes,7,,,"The Southcape Merino V Neck features ribbing at the neck, cuffs and hem. This long sleeve design is made from soft, breathable 100% merino. Layer over a shirt and jeans for comfortable casual wear.",Ezi3.jpg,,,,,Next,Blue,XL
New Look Mens Tuck Stitch New,EM104,10,5,5,5,50,No,10,Yes,7,,,"The Southcape Merino V Neck features ribbing at the neck, cuffs and hem. This long sleeve design is made from soft, breathable 100% merino. Layer over a shirt and jeans for comfortable casual wear.",Ezi4.jpg,Ezi4-1.jpg,,,,New Look,Black,M
New Look Mens Basic Grandad Pocket Tee,EM105,4,2,2,2,50,No,5,Yes,7,,,"The Southcape Merino V Neck features ribbing at the neck, cuffs and hem. This long sleeve design is made from soft, breathable 100% merino. Layer over a shirt and jeans for comfortable casual wear.",Ezi5.jpg,,,,,New Look,Navy,S
New Look Mens You Do The Math Tee,EM106,6,3,3,3,100,No,10,Yes,7,,,"Simple but with a cool streetwear edge, this New Look Tee is a must-have. Cut with a round neck and short sleeves. Cotton/polyester.",Ezi6.jpg,,,,,New Look,Black,XL
Southcape Boardriders Tee,EM107,10,5,5,5,50,No,5,Yes,7,,,"Southcape's Boardriders Tee is comfortable enough for off-duty and seriously stylish. Cut with a round neck, short sleeves and a placement print at the centre front.",Ezi7.jpg,Ezi7-2.jpg,Ezi7-3.jpg,Ezi7-4.jpg,,New Look,Black,M
Southcape Slim Fit Polo,,100,80,10,5,200,Yes,0,Yes,7,,,The Southcape Slim Fit Polo is collared with a half button fastening. There is ribbing on the neck and cuff. This slim fit polo is available in an array of spring appropriate colours so you can add a couple to your wardrobe.,Ezi8.jpg,,,,,Southcape,Orange,L
Next Stripe Poloshirt,,120,100,10,5,200,Yes,0,Yes,7,,,The Southcape Slim Fit Polo is collared with a half button fastening. There is ribbing on the neck and cuff. This slim fit polo is available in an array of spring appropriate colours so you can add a couple to your wardrobe.,Ezi9.jpg,,,,,New Look,blue,M
