ProductName,SKU,RegularPrice,Saleprice,MaxPurchase,LowNotification,Stock,FreeShipping,ShippingCharge,ReturnType,ReturnDays,SearchTag,SortDesc,Description,Image1,Image2,Image3,Image4,Image5,Brand,Color,Size
Facebook 1,Facebook 1,200,150,10,10,10,Yes,2,Yes,7,,,,346718947.jpg,346718947.jpg,346718947.jpg,346718947.jpg,346718947.jpg,2nd Day,Black,"M,L,XL"
Facebook 2,Facebook 2,200,150,10,10,10,Yes,2,Yes,7,,,,387665979.jpg,387665979.jpg,387665979.jpg,387665979.jpg,387665979.jpg,3rd Day,Black,"M,L,S"
Facebook 3,Facebook 3,200,150,10,10,10,Yes,2,Yes,7,,,,349748262.jpg,349748262.jpg,349748262.jpg,349748262.jpg,349748262.jpg,4th Day,Black,"M,L,XL"
Facebook 4,Facebook 4,200,150,10,10,10,Yes,2,Yes,7,,,,324361544.jpg,324361544.jpg,324361544.jpg,324361544.jpg,324361544.jpg,5th Day,Black,"M,L,S"
Facebook 5,Facebook 5,200,150,10,10,10,No,2,No,7,,,,346718824.jpg,346718824.jpg,346718824.jpg,346718824.jpg,346718824.jpg,6th Day,Black,"M,L,S"
Facebook 6,Facebook 6,200,150,10,10,10,No,2,No,7,,,,346718835.jpg,346718835.jpg,346718835.jpg,346718835.jpg,346718835.jpg,7th Day,Black,"M,L,S"
Facebook 7,Facebook 7,200,150,10,10,10,No,2,No,7,,,,346718835.jpg,346718835.jpg,346718835.jpg,346718835.jpg,346718835.jpg,8th Day,Black,"M,L,S"
