ProductName,SKU,RegularPrice,Saleprice,MaxPurchase,Stock,ShippingCharge,ReturnDays,SearchTag,SortDesc,Description,Image1,Image2,Image3,Image4,Image5,Flavour,Brand
Nutrition: Health Solutions,733339,80,70,1,10,0,7,Health,Nutrition: Health Solutions,"Nutrition Nutrition is a combination of processes of receiving andutilizing materials needed for sustaining life. This book will help you know more about various healthy foods,so that you can work out a balanced diet and decide what exactlyyour body need at your age. It also provides tips to retain the nutritive value of foodwhile cooking, and discusses the role of spices, condiments andbeverages in your diet.",nut1.JPEG,,,,,Orange,Paperback 
Nutrition: vitamins and minerals Kindle Edition,146VJA7M,70,60,1,10,0,7,Health,Nutrition: vitamins and minerals Kindle Edition,"Both vitamins and minerals are essential in the diet in small quantities. Learn about the two main vitamin groups and the major mineral elements. This free ebook, Nutrition: vitamins and minerals, looks at the two main groups of vitamins: the fat-soluble vitamins, A, D, E and K; and the water-soluble vitamins, the B group and vitamin C. It also examines the major mineral elements, and the importance of fluid balance in the body.",nut2.JPEG,,,,,Orange,Paperback 
Six Pack Nutrition Bulk 2 Kg,DC6UA,105,90,1,10,0,7,Health,Six Pack Nutrition Bulk 2 Kg,"High calorie weight gain formula for hard gainers and ectomorphs
5:1 carb to protein ratio, enriched with 11 vitamins",nut3.JPEG,,,,,Choc Fixx,Paperback 
