ProductName,SKU,RegularPrice,Saleprice,MaxPurchase,Stock,ShippingCharge,ReturnDays,SearchTag,SortDesc,Description,Image1,Image2,Image3,Image4,Image5,Flavour,Brand
Rite Bite Max Protein - Choco Fudge 1 *6Bar per box11,4784512,100,95,1,10,0,7,Health,The medical information on this site is provided as an information resource only and is not to be used or relied on for any diagnostic or treatment purposes,The medical information on this site is provided as an information resource only and is not to be used or relied on for any diagnostic or treatment purposes,max1.JPEG,,,,,Chockolate,SHOTGUN
Nutrition Paradise Ultimate Nutrition L-Carnitine Liquid 355 Ml11,4856321,1050,1050,1,10,0,7,Health,"Ultimate Nutrition L-Carnitine liquid is one of the most versatile supplements available, perfect for all athletes. Carnitine helps the body convert food to energy-providing support for endurance exercise (aerobic) and during recovery from high intensity activities such as weightlifting and sprinting (anaerobic). Helps convert food to energy Helps to maximize muscle carnitine concentrations at the gym or before athletic competition.","Ultimate Nutrition L-Carnitine liquid is one of the most versatile supplements available, perfect for all athletes. Carnitine helps the body convert food to energy-providing support for endurance exercise (aerobic) and during recovery from high intensity activities such as weightlifting and sprinting (anaerobic). Helps convert food to energy Helps to maximize muscle carnitine concentrations at the gym or before athletic competition.

Carnitine helps the body convert food to energy providing support for endurance exercise (aerobic) and during recovery from high intensity activities such as weightlifting and sprinting (anaerobic). Helps to maximize muscle carnitine concentrations at the gym or before athletic competition.",max2.jpeg,,,,,Apple,NUTRITION PARADISE
Sinew Nutrition Creatine Monohydrate 300gm11,7865412,485,480,1,22,0,0,Health,Sinew Nutrition Creatine Monohydrate 300gm,"Sinew Nutrition Creatine Monohydrate Creatine Monohydrate 300g powder creatine monohydrate is comprises of 100 % pure flavourless micronized creatine monohydrate with no fillers or additives with makes it s efficiency more to go by without a second thought. Creatine is a naturally happening molecule in the body that plays a pivotal role and explosive energy metabolism that drives periods of short burst power. 5 grams of Pure micronized creatine monohydrate per serving maximizes muscular development drives explosive muscle power helps pace recovery between sets suggested use as a dietary supplement. Supplementing with creatine monohydrate aids to supersaturate muscles with rapid fuelling creatine driving improved muscle power output explosive strength and rapid intra workout recovery. Method of Consumption : * 5 grams of pure micronized creatine mono hydrate per serving maximizes muscular development drives explosive muscle power helps pace recovery between sets suggested use as a dietary supplement . * Take one rounded teaspoon (5 grams) four times per day(20 grams) for initial 5 days. * Take one rounded teaspoon (5 grams ) two times daily (10 grams total) henceforth. * Dissolve it in juice or water as suggested by your physician. Benefits of Creatine : * Creatine Monohydrate is 100 percent pure, flavorless, micronized creatine monohydrate with no fillers or additives : Creatine enables your muscles are infused with the energy your ATP reserve falls short of so that you can maximize your performance levels. * Maximizes Muscular Development : The cell volumnizing aftermath of creatine keeps your muscles hydrated, binding water inside them, giving you the heavy and beefed up look. You look larger with muscles that have improved strength , good endurance and rapid recovery time. * Drives Explosive Muscle Power : This creatine comprises of significant muscle power.",max3,,,,,Banana,Sinew
Nourish Organics Lime Date Bar11,5688923,420,400,1,10,0,0,Health,Nourish Organics Lime Date Bar,Dates help maintain a regular heartbeat.It promotes bowel regularity. Dates also contain slow-release sugars and soothes cough and sore throats.,max4.JPEG,,,,,Orange,Nourish Organics
On The Run Hazelnut Magic Box Of 611,4521389,360,350,1,10,0,7,Health,On The Run Hazelnut Magic Box Of 6,1. Dates Hazelnuts oats and with power of Ashwagandha it can t get any better! Whether you need a pre-exercise boost or looking to balance your sugar levels dates and honey will provide you nutritionally balanced blast of sustained energy. Use it as mid meal snack or when you crave for a sweet!,max5.JPEG,,,,,,
Nourish Organics Multigrain Muesli11,782452,500,450,1,10,0,7,Health,Nourish Organics Multigrain Muesli,Wake up to health and potency with the splendid goodness of Multigrain Muesli.These crunchy wholegrain flakes are loaded with key nutrients and fibre building core organ strength and lowering blood pressure. Sesame and other seeds have Omega 3 for tough bones and a vital nervous system and nuts are a storehouse of energy pumping your body with vigour.,max6.JPEG,,,,,weqhwjegadfb,diugabadbj
Yogabars Chocolate Chunk Nut Bar Box (Pack Of 10 Bars)11,738569,450,400,1,10,5,0,Health,Yogabars Chocolate Chunk Nut Bar Box (Pack Of 10 Bars),Yogabars Chocolate Chunk Nut Bar Box (Pack Of 10 Bars),max7.JPEG,,,,,Orange,Nourish Organics
