ProductName,SKU,RegularPrice,Saleprice,MaxPurchase,LowNotification,Stock,FreeShipping,ShippingCharge,ReturnType,ReturnDays,SearchTag,SortDesc,Description,Image1,Image2,Image3,Image4,Image5,Brand,Color
Loreal Paris Super Liner Blackbuster 2.5 g,LorealLiner,750,661,25,1,56,0,0,2,2,"UCD ,deo, ","The first of its kind, this Superliner Blackbuster from L’Oreal Paris is an innovative <b>“black ink formula” </b> <script> alert( which) <script> strikes a bold look that can be instantly switched, subtle eye drama to runway model flawlessness.","Easy-to-use Marker Pen for an Error-proof, Smooth Glide

Designed like a marker, this Blackbuster eyeliner mistake-proof and easy to apply as it will glide smoothly across your eyelids. It is also smudge proof, which seals its easy to use status.

Striking Black Pigment

The black ink formula is a breakthrough in cosmetics as it is 100% black and works smoothly over the eyes, making your look more intense and rich.

Lasts for 8 Hours

The black pigment has a life of about 8 hours, after which it starts to fade out. It is also as easy to remove as it is easy to apply, with a remove application.",linker1.jpeg,linker2.jpeg,,,,Loreal Paris ,Black
Cameleon Eye Shadow Kit E 36 3.5 g,cameleon,1050,575,25,1,56,0,0,2,2,"UCD ,deo, ",Shadows deluxe kit with 36 beautiful colors of shadows. Modern colors and well coordinated. The colors have a fine texture and glide smoothly. Allows a makeup beautiful and versatile.,"Shadows deluxe kit with 36 beautiful colors of shadows. Modern colors and well coordinated. The colors have a fine texture and glide smoothly. Allows a makeup beautiful and versatile.

This eyeshadow palette is really nice....I bought this from a different website but the price was more or less the same. It is a decent palette to own. Awesome pigmentation! But the price is a little too high for the quantity offered. The texture is not at all chalky....it's super smooth. Very less fallout...but as I said, very very less quantity for the price. If you don't mind paying extra to own a decent eyeshadow palette with awesome colours and pigmentation, you should buy it.",camel1.jpeg,camel2.jpeg,camel3.jpeg,,,Cameleon,Brown
