ProductName,SKU,RegularPrice,Saleprice,MaxPurchase,Stock,ShippingCharge,ReturnDays,SearchTag,SortDesc,Description,Image1,Image2,Image3,Image4,Image5,Brand,Age,For
Himalaya Herbals Gentle Baby Wipes,4020,200,150,1,10,0,7,baby,The wipe sheets are used for cleaning the skin of babies. Using this product reduces the chances of rashes and allergies as it is made from aloe vera and lotus extracts. Aloe vera has a soothing effect on the skin that leaves the baby feeling fresh and happy.,"Himalaya Herbals Gentle Baby Wipes are used for cleaning the babies while changing diapers. This pack of 72 sheets is soft and ideal for the delicate skin of babies. For infants, cleaning them while changing diapers is a task that must be done carefully. Moreover, the skin around the area of the body, which is covered by the diapers, can become very sensitive. Therefore, a soft wipe should be used for cleaning that area in order to prevent eruptions and rashes. Using soap and water is only possible in the house. However, when babies are taken outside, these wipes from Himalaya Herbals are suitable and helps in cleaning the baby easily. The handy pack of baby wipes is easy to carry and reduces the mess that occurs when diapers are to be changed. Himalaya is a leading manufacturer of herbal cosmetic products and drugs. The company also manufactures a wide range of baby products that include cream, shampoo, talcum powder, lotion and baby wipes.",him1,,,,,Himalaya,0-2,Baby
DUCKY BABY BATH SQUEEZE TOY,1020,150,100,1,10,0,7,baby,Ducky Set is a cool Bath toy for kids! If you squeeze it makes sound,Ducky Set is a cool Bath toy for kids! If you squeeze it makes sound Floats in bath tub without leaking! Let your baby enjoy while bathing with this little ducky ducks! ,baby1,,,,,Himalaya,0-2,baby
