ProductName,SKU,RegularPrice,Saleprice,MaxPurchase,LowNotification,Stock,FreeShipping,ShippingCharge,ReturnType,ReturnDays,SearchTag,SortDesc,Description,Image1,Image2,Image3,Image4,Image5
"Universal Nutrition Amino 1900, 300 tablet(s) Unflavoured",ABC01,200,100,10,1,100,No,0,No,0,Amino Acid products,"Enriched with BCAAs, glutamine, and amino acids that stimulate muscle growth
Boosts up your muscle strength and elevates your energy level
Consists of digestive enzymes that helps in easy digestion
Helps in the speedy recovery of your fatigued and sore muscles","Enriched with BCAAs, glutamine, and amino acids that stimulate muscle growth
Boosts up your muscle strength and elevates your energy level
Consists of digestive enzymes that helps in easy digestion
Helps in the speedy recovery of your fatigued and sore muscles",img1.jpg,,,,
"MuscleBlaze BCAA 6000, 400 g Tangy Orange (50 Servings)",ABC02,10000,8000,10,1,100,No,1,No,1,amino Acid products,"6000mg of BCAA per serving
Bodybuilding supplement in India available in tangy orange flavour
3000mg of Leucine provided for lean muscle build-up
Is available in convenient powder form at an unmatched price
Highly efficient supplement for muscle recovery","6000mg of BCAA per serving
Bodybuilding supplement in India available in tangy orange flavour
3000mg of Leucine provided for lean muscle build-up
Is available in convenient powder form at an unmatched price
Highly efficient supplement for muscle recovery",img2.jpg,,,,