ProductName,SKU,RegularPrice,Saleprice,MaxPurchase,LowNotification,Stock,FreeShipping,ShippingCharge,ReturnType,ReturnDays,SearchTag,SortDesc,Description,Image1,Image2,Image3,Image4,Image5,Brand,Color,Size
Capture Linen Dress,EZI101,100,80,10,10,100,Yes,0,Yes,7,,,"Capture epitomises cool summer style with this easy to wear light wash shirt dress. Complete with button front, waist tie and front and side pockets it is perfect when paired with a summer sandal or canvas shoe.",Ezibuy101.jpg,Ezibuy1011.jpg,,,,Capture,White,M
Capture Pretty Dress,EZI102,100,80,10,10,100,Yes,0,Yes,8,,,"Capture epitomises cool summer style with this easy to wear light wash shirt dress. Complete with button front, waist tie and front and side pockets it is perfect when paired with a summer sandal or canvas shoe.",Ezibuy102.jpg,,,,,Capture,floral,XL
Capture Flare Dress,EZI103,100,80,10,10,100,Yes,0,Yes,9,,,"Capture epitomises cool summer style with this easy to wear light wash shirt dress. Complete with button front, waist tie and front and side pockets it is perfect when paired with a summer sandal or canvas shoe.",Ezibuy103.jpg,,,,,Capture,Print,S
Capture Shirt Dress,EZI104,100,80,10,10,100,Yes,0,Yes,10,,,"Capture epitomises cool summer style with this easy to wear light wash shirt dress. Complete with button front, waist tie and front and side pockets it is perfect when paired with a summer sandal or canvas shoe.",Ezibuy104.jpg,,,,,Capture,Blue,S
Urban Printed Tunic Dress,EZI105,100,80,10,10,100,Yes,0,Yes,11,,,"Urban epitomises cool summer style with this easy to wear light wash shirt dress. Complete with button front, waist tie and front and side pockets it is perfect when paired with a summer sandal or canvas shoe.",Ezibuy105.jpg,,,,,Urban,Blue,M
Urban Border Print Dress Pink,EZI106,100,80,10,10,100,No,5,Yes,12,,,"Urban epitomises cool summer style with this easy to wear light wash shirt dress. Complete with button front, waist tie and front and side pockets it is perfect when paired with a summer sandal or canvas shoe.",Ezibuy106.jpg,,,,,Urban,Pink,S
Urban Border Print Dress Black,EZI107,100,80,10,10,100,No,5,Yes,13,,,"Urban epitomises cool summer style with this easy to wear light wash shirt dress. Complete with button front, waist tie and front and side pockets it is perfect when paired with a summer sandal or canvas shoe.",Ezibuy107.jpg,,,,,Urban,Black,M
Next Boho Dress,EZI108,100,80,10,10,100,No,5,Yes,14,,,"Next epitomises cool summer style with this easy to wear light wash shirt dress. Complete with button front, waist tie and front and side pockets it is perfect when paired with a summer sandal or canvas shoe.",Ezibuy108.jpg,,,,,Next,Black,M
Next Burnout Maxi Dress,EZI109,100,80,10,10,100,No,5,Yes,15,,,"Next epitomises cool summer style with this easy to wear light wash shirt dress. Complete with button front, waist tie and front and side pockets it is perfect when paired with a summer sandal or canvas shoe.",Ezibuy110.jpg,,,,,Next,Blue,M
Next Crepe Sleeveless Dress (Petite),EZI110,100,80,10,10,100,No,5,Yes,16,,,"Next epitomises cool summer style with this easy to wear light wash shirt dress. Complete with button front, waist tie and front and side pockets it is perfect when paired with a summer sandal or canvas shoe.",Ezibuy109.jpg,,,,,Next,Black,M
