Error Product List 
--------------------------------------
(1)
     Line No: 1
     Product Name: Apple iPhone 6 Plus 16 GB
     Error Type: Option --> Colour is not available for this category

(2)
     Line No: 2
     Product Name: Apple iPhone 6S Plus 64 GB
     Error Type: Option --> Colour is not available for this category

(3)
     Line No: 3
     Product Name: Samsung Galexy Grand Neo Plus 8 GB (Black)
     Error Type: Option --> Colour is not available for this category

(4)
     Line No: 4
     Product Name: Samsung Galaxy Core 2 SM-G355H
     Error Type: Option --> Colour is not available for this category

(5)
     Line No: 5
     Product Name: HTC Desire 820q (Grey)
     Error Type: Option --> Colour is not available for this category

