Duplicate Product List
--------------------------------------
(4)
     Line No: 4
     Product Name: 1Nike Mens White BB Kobe GS Stripe Polo Shirt M

(11)
     Line No: 11
     Product Name: 1 Nike Mens FC Barcelona Cotton Replica Polo Shirt S

(13)
     Line No: 13
     Product Name: 1Nike Mens Grey BB Kobe GS Polo Shirt Size L

