Duplicate Product List
--------------------------------------
(1)
     Line No: 1
     Product Name: Beuti1

(2)
     Line No: 2
     Product Name: Beuti2

(3)
     Line No: 3
     Product Name: Beuti3

(4)
     Line No: 4
     Product Name: Beuti4

(5)
     Line No: 5
     Product Name: Beuti5

(6)
     Line No: 6
     Product Name: Beuti6

(7)
     Line No: 7
     Product Name: Beuti7

(8)
     Line No: 8
     Product Name: Beuti8

(9)
     Line No: 9
     Product Name: Beuti9

(10)
     Line No: 10
     Product Name: Beuti10

(11)
     Line No: 11
     Product Name: Beuti11

(12)
     Line No: 12
     Product Name: Beuti12

(13)
     Line No: 13
     Product Name: Beuti13

(14)
     Line No: 14
     Product Name: Beuti14

(15)
     Line No: 15
     Product Name: Beuti15

(16)
     Line No: 16
     Product Name: Beuti16

(17)
     Line No: 17
     Product Name: Beuti17

(18)
     Line No: 18
     Product Name: Beuti18

(19)
     Line No: 19
     Product Name: Beuti19

