Error Product List 
--------------------------------------
(3)
     Line No: 3
     Product Name: Sinew Nutrition Creatine Monohydrate 300gm11
     Error Type: Numeric Value is allowed in Stock field

