Error Product List 
--------------------------------------
(1)
     Line No: 1
     Product Name: 
     Error Type: Product Name is Required

Duplicate Product List
--------------------------------------
(2)
     Line No: 2
     Product Name: 

(3)
     Line No: 3
     Product Name: 

(4)
     Line No: 4
     Product Name: 

(5)
     Line No: 5
     Product Name: 

(6)
     Line No: 6
     Product Name: 

(7)
     Line No: 7
     Product Name: 

(8)
     Line No: 8
     Product Name: 

(9)
     Line No: 9
     Product Name: 

(10)
     Line No: 10
     Product Name: 

(11)
     Line No: 11
     Product Name: 

(12)
     Line No: 12
     Product Name: 

(13)
     Line No: 13
     Product Name: 

(14)
     Line No: 14
     Product Name: 

(15)
     Line No: 15
     Product Name: 

(16)
     Line No: 16
     Product Name: 

(17)
     Line No: 17
     Product Name: 

