Error Product List 
--------------------------------------
(8)
     Line No: 8
     Product Name: Southcape Slim Fit Polo
     Error Type: SKU is Required

Duplicate Product List
--------------------------------------
(9)
     Line No: 9
     Product Name: Next Stripe Poloshirt

