Duplicate Product List
--------------------------------------
(1)
     Line No: 1
     Product Name: iPhone 4 4s Tempered Glass protector

(2)
     Line No: 2
     Product Name: iPhone 5 5s Tempered Glass protector

(3)
     Line No: 3
     Product Name: iPhone 6 6s Tempered Glass protector

(4)
     Line No: 4
     Product Name: iPhone 6 Plus  6S Plus Tempered Glass protector

