Error Product List 
--------------------------------------
(1)
     Line No: 1
     Product Name: Universal Car Phone Holder 
     Error Type: Option --> Internal Memory is not available for this category

