Duplicate Product List
--------------------------------------
(1)
     Line No: 1
     Product Name: Luxury iPhone 6 6S Rich Diary Wallet Case Pink

(2)
     Line No: 2
     Product Name: Luxury iPhone 6 6S Rich Diary Wallet Case Gold

(3)
     Line No: 3
     Product Name: Luxury iPhone 6 6S Rich Diary Wallet Case Black

(4)
     Line No: 4
     Product Name: Luxury iPhone 6 6S Rich Diary Wallet Case Purple

