Error Product List 
--------------------------------------
(1)
     Line No: 1
     Product Name: Zaveri Pearls Multi Necklace Set
     Error Type: Error in Regular Price 

(2)
     Line No: 2
     Product Name: The Pari Gold Alloy Earring
     Error Type: Error in Regular Price 

(3)
     Line No: 3
     Product Name: Zaveri Pearls Blue And White Earrings
     Error Type: Error in Regular Price 

(4)
     Line No: 4
     Product Name: Zaveri Pearls Multi Earrings
     Error Type: Error in Regular Price 

